{
	"providers": {
		"awscloudformation": {
			"AuthRoleName": "amplify-project01-dev-215527-authRole",
			"UnauthRoleArn": "arn:aws:iam::659072926143:role/amplify-project01-dev-215527-unauthRole",
			"AuthRoleArn": "arn:aws:iam::659072926143:role/amplify-project01-dev-215527-authRole",
			"Region": "eu-west-1",
			"DeploymentBucketName": "amplify-project01-dev-215527-deployment",
			"UnauthRoleName": "amplify-project01-dev-215527-unauthRole",
			"StackName": "amplify-project01-dev-215527",
			"StackId": "arn:aws:cloudformation:eu-west-1:659072926143:stack/amplify-project01-dev-215527/ec372b10-ebc3-11ea-b1bc-062b1cfafef6",
			"AmplifyAppId": "d3mfd13h0tuwv"
		}
	},
	"function": {
		"project012aa2654fPostConfirmation": {
			"build": true,
			"providerPlugin": "awscloudformation",
			"service": "Lambda",
			"lastBuildTimeStamp": "2020-08-31T20:22:04.629Z",
			"lastPackageTimeStamp": "2020-08-31T20:22:05.075Z",
			"distZipFilename": "project012aa2654fPostConfirmation-564479754b7a546b6c66-build.zip",
			"providerMetadata": {
				"s3TemplateURL": "https://s3.amazonaws.com/amplify-project01-dev-215527-deployment/amplify-cfn-templates/function/project012aa2654fPostConfirmation-cloudformation-template.json",
				"logicalId": "functionproject012aa2654fPostConfirmation"
			},
			"lastPushTimeStamp": "2020-08-31T20:28:13.444Z",
			"output": {
				"Region": "eu-west-1",
				"Arn": "arn:aws:lambda:eu-west-1:659072926143:function:project012aa2654fPostConfirmation-dev",
				"Name": "project012aa2654fPostConfirmation-dev",
				"LambdaExecutionRole": "project012aa2654fPostConfirmation-dev"
			},
			"lastPushDirHash": "mmYTT1nfLfgmhETTbdAo+3fM0eU="
		}
	},
	"auth": {
		"project012aa2654f": {
			"service": "Cognito",
			"providerPlugin": "awscloudformation",
			"dependsOn": [
				{
					"category": "function",
					"resourceName": "project012aa2654fPostConfirmation",
					"triggerProvider": "Cognito",
					"attributes": [
						"Arn",
						"Name"
					]
				}
			],
			"providerMetadata": {
				"s3TemplateURL": "https://s3.amazonaws.com/amplify-project01-dev-215527-deployment/amplify-cfn-templates/auth/project012aa2654f-cloudformation-template.yml",
				"logicalId": "authproject012aa2654f"
			},
			"lastPushTimeStamp": "2020-08-31T20:28:13.444Z",
			"output": {
				"AppClientSecret": "130630itjb0o8g5ijnecq5q625lnln9d7hajojehkj4c90dq0kk2",
				"UserPoolId": "eu-west-1_FfkvfUAZk",
				"AppClientIDWeb": "7p9mufl85vo3hs3v2103lnihos",
				"AppClientID": "bqu3389pln8gmpfj2ui0fq8qk",
				"IdentityPoolId": "eu-west-1:d2e9c3f1-f6b6-4507-a43b-1ed00eb31d11",
				"IdentityPoolName": "project012aa2654f_identitypool_2aa2654f__dev",
				"UserPoolName": "project012aa2654f_userpool_2aa2654f"
			},
			"lastPushDirHash": "VuuXpiLTkLxQ3WI9SkSFSS4y3GQ="
		}
	},
	"storage": {
		"mediaIAV": {
			"service": "S3",
			"providerPlugin": "awscloudformation",
			"providerMetadata": {
				"s3TemplateURL": "https://s3.amazonaws.com/amplify-project01-dev-215527-deployment/amplify-cfn-templates/storage/s3-cloudformation-template.json",
				"logicalId": "storagemediaIAV"
			},
			"lastPushTimeStamp": "2020-08-31T20:28:13.444Z",
			"output": {
				"BucketName": "lovedeykballbuckttupassga215527-dev",
				"Region": "eu-west-1"
			},
			"lastPushDirHash": "9wpccRUex4wvldOqyXygIrtnqTM="
		}
	},
	"api": {
		"shop01api": {
			"service": "AppSync",
			"providerPlugin": "awscloudformation",
			"output": {
				"authConfig": {
					"defaultAuthentication": {
						"authenticationType": "AMAZON_COGNITO_USER_POOLS",
						"userPoolConfig": {
							"userPoolId": "authproject012aa2654f"
						}
					},
					"additionalAuthenticationProviders": [
						{
							"authenticationType": "API_KEY",
							"apiKeyConfig": {
								"apiKeyExpirationDays": 100,
								"description": "gatsby"
							}
						}
					]
				},
				"GraphQLAPIIdOutput": "6nc7u74cnrfeloofwhjq47j6qu",
				"GraphQLAPIEndpointOutput": "https://a2ahgghfgrhgbbeolm2htnnmqm.appsync-api.eu-west-1.amazonaws.com/graphql",
				"GraphQLAPIKeyOutput": "da2-uavfpkrum5ctrlkdzvvrncj6vy"
			},
			"providerMetadata": {
				"s3TemplateURL": "https://s3.amazonaws.com/amplify-project01-dev-215527-deployment/amplify-cfn-templates/api/cloudformation-template.json",
				"logicalId": "apishop01api"
			},
			"lastPushTimeStamp": "2020-08-31T20:28:13.444Z",
			"lastPushDirHash": "jK21L2ScOTOIhaAXXAnCF+PJ9dQ="
		}
	}
}