{
	"function": {
		"project012aa2654fPostConfirmation": {
			"build": true,
			"providerPlugin": "awscloudformation",
			"service": "Lambda"
		}
	},
	"auth": {
		"project012aa2654f": {
			"service": "Cognito",
			"providerPlugin": "awscloudformation",
			"dependsOn": [
				{
					"category": "function",
					"resourceName": "project012aa2654fPostConfirmation",
					"triggerProvider": "Cognito",
					"attributes": [
						"Arn",
						"Name"
					]
				}
			]
		}
	},
	"storage": {
		"mediaIAV": {
			"service": "S3",
			"providerPlugin": "awscloudformation"
		}
	},
	"api": {
		"shop01api": {
			"service": "AppSync",
			"providerPlugin": "awscloudformation",
			"output": {
				"authConfig": {
					"defaultAuthentication": {
						"authenticationType": "AMAZON_COGNITO_USER_POOLS",
						"userPoolConfig": {
							"userPoolId": "authproject012aa2654f"
						}
					},
					"additionalAuthenticationProviders": [
						{
							"authenticationType": "API_KEY",
							"apiKeyConfig": {
								"apiKeyExpirationDays": 100,
								"description": "gatsby"
							}
						}
					]
				}
			}
		}
	}
}